
{
  "id": "did:web:pinewood-builders.com",
  "@context": [
    "https://www.w3.org/ns/did/v1",
    {
      "@base": "did:web:pinewood-builders.com"
    }
  ],
  "service": [
    {
      "id": "#linkeddomains",
      "type": "LinkedDomains",
      "serviceEndpoint": {
        "origins": [
          "https://pinewood-builders.com/"
        ]
      }
    },
    {
      "id": "#hub",
      "type": "IdentityHub",
      "serviceEndpoint": {
        "instances": [
          "https://beta.hub.msidentity.com/v1.0/40237692-02cc-4ae9-9af9-c75f4366d418"
        ]
      }
    }
  ],
  "verificationMethod": [
    {
      "id": "#44d71f46c068480aaf6b1ce188ddc5ecvcSigningKey-065b0",
      "controller": "did:web:pinewood-builders.com",
      "type": "EcdsaSecp256k1VerificationKey2019",
      "publicKeyJwk": {
        "crv": "secp256k1",
        "kty": "EC",
        "x": "Pr-_wlFAxmbmnjwXqvJo36DtRpVDyyeQBZm_FpoF8Os",
        "y": "IedrbXq-pzPgYZ0dTJvR6DyKlR1cI_egV7DVVypkUTs"
      }
    }
  ],
  "authentication": [
    "#44d71f46c068480aaf6b1ce188ddc5ecvcSigningKey-065b0"
  ],
  "assertionMethod": [
    "#44d71f46c068480aaf6b1ce188ddc5ecvcSigningKey-065b0"
  ]
}
